{
  "count": 325,
  "next": "http://demo.baby-buddy.net/api/changes/?limit=100&offset=100",
  "previous": null,
  "results": [
    {
      "id": 325,
      "child": 1,
      "time": "2025-08-08T18:51:37.243844Z",
      "wet": true,
      "solid": false,
      "color": "",
      "amount": 1.6,
      "notes": "",
      "tags": []
    },
    {
      "id": 324,
      "child": 1,
      "time": "2025-08-08T16:25:33.243844Z",
      "wet": false,
      "solid": true,
      "color": "green",
      "amount": 4.4,
      "notes": "",
      "tags": []
    },
    {
      "id": 323,
      "child": 1,
      "time": "2025-08-08T15:40:33.243844Z",
      "wet": true,
      "solid": true,
      "color": "green",
      "amount": 3.2,
      "notes": "Land wrong technology coach able practice course. Arrive religious Democrat focus. International mention although. Stage bad effort outside indicate cost.",
      "tags": []
    },
    {
      "id": 322,
      "child": 1,
      "time": "2025-08-08T11:08:25.243844Z",
      "wet": false,
      "solid": false,
      "color": "",
      "amount": 5.5,
      "notes": "",
      "tags": [
        "&29xsQf",
        ")R*a0Dwc_",
        "&^6Ker0u^",
        "S&c_%5Js",
        ")xg@3lYj"
      ]
    },
    {
      "id": 321,
      "child": 1,
      "time": "2025-08-08T07:58:33.243844Z",
      "wet": true,
      "solid": true,
      "color": "yellow",
      "amount": 4.1,
      "notes": "",
      "tags": []
    },
    {
      "id": 320,
      "child": 1,
      "time": "2025-08-08T07:27:33.243844Z",
      "wet": false,
      "solid": false,
      "color": "",
      "amount": 2.2,
      "notes": "",
      "tags": []
    },
    {
      "id": 319,
      "child": 1,
      "time": "2025-08-08T07:01:33.243844Z",
      "wet": false,
      "solid": true,
      "color": "brown",
      "amount": 3.5,
      "notes": "",
      "tags": []
    },
    {
      "id": 318,
      "child": 1,
      "time": "2025-08-08T02:15:33.243844Z",
      "wet": false,
      "solid": false,
      "color": "",
      "amount": 6.9,
      "notes": "Prove head need black. Meet long Democrat less way administration seat. Certainly analysis hair gas put enjoy color their. Appear lawyer network financial responsibility prove radio. Nature season hour drive building.",
      "tags": []
    },
    {
      "id": 317,
      "child": 1,
      "time": "2025-08-07T19:59:40.243844Z",
      "wet": true,
      "solid": false,
      "color": "",
      "amount": 4.3,
      "notes": "",
      "tags": []
    },
    {
      "id": 316,
      "child": 1,
      "time": "2025-08-07T17:28:40.243844Z",
      "wet": true,
      "solid": false,
      "color": "",
      "amount": 5.3,
      "notes": "",
      "tags": []
    },
    {
      "id": 315,
      "child": 1,
      "time": "2025-08-07T14:24:47.243844Z",
      "wet": true,
      "solid": false,
      "color": "",
      "amount": 4.4,
      "notes": "",
      "tags": []
    },
    {
      "id": 314,
      "child": 1,
      "time": "2025-08-07T10:57:45.243844Z",
      "wet": true,
      "solid": false,
      "color": "",
      "amount": 0.3,
      "notes": "",
      "tags": []
    },
    {
      "id": 313,
      "child": 1,
      "time": "2025-08-07T10:05:45.243844Z",
      "wet": true,
      "solid": false,
      "color": "",
      "amount": 6.9,
      "notes": "",
      "tags": []
    },
    {
      "id": 312,
      "child": 1,
      "time": "2025-08-07T07:45:46.243844Z",
      "wet": true,
      "solid": false,
      "color": "",
      "amount": 6.4,
      "notes": "",
      "tags": []
    },
    {
      "id": 311,
      "child": 1,
      "time": "2025-08-07T06:26:18.243844Z",
      "wet": true,
      "solid": false,
      "color": "",
      "amount": 2.8,
      "notes": "",
      "tags": []
    },
    {
      "id": 310,
      "child": 1,
      "time": "2025-08-07T05:58:18.243844Z",
      "wet": false,
      "solid": false,
      "color": "",
      "amount": 1.5,
      "notes": "",
      "tags": [
        "&29xsQf",
        "&2CtUv",
        ")xg@3lYj"
      ]
    },
    {
      "id": 309,
      "child": 1,
      "time": "2025-08-07T01:12:18.243844Z",
      "wet": true,
      "solid": false,
      "color": "",
      "amount": 6.8,
      "notes": "Win edge specific price upon. Also deal cultural perform season enough. Sport network reveal especially. Hotel save prove unit town for hospital.",
      "tags": [
        "S&c_%5Js",
        "@6Rm",
        "C))6_Ihc1",
        ")xg@3lYj",
        "W5Pfdy$1+n"
      ]
    },
    {
      "id": 308,
      "child": 1,
      "time": "2025-08-06T20:36:06.243844Z",
      "wet": false,
      "solid": false,
      "color": "",
      "amount": 2.2,
      "notes": "",
      "tags": [
        "S&c_%5Js",
        "&^6Ker0u^",
        ")xg@3lYj",
        "@6Rm"
      ]
    },
    {
      "id": 307,
      "child": 1,
      "time": "2025-08-06T19:53:51.243844Z",
      "wet": true,
      "solid": false,
      "color": "",
      "amount": 5.1,
      "notes": "",
      "tags": []
    },
    {
      "id": 306,
      "child": 1,
      "time": "2025-08-06T16:58:22.243844Z",
      "wet": true,
      "solid": false,
      "color": "",
      "amount": 2.5,
      "notes": "Cell past leave move. Word sort social our goal my create south. New single soldier all. Side moment effort opportunity admit create. Need business sign black Mr identify work.",
      "tags": []
    },
    {
      "id": 305,
      "child": 1,
      "time": "2025-08-06T14:26:29.243844Z",
      "wet": false,
      "solid": false,
      "color": "",
      "amount": 3.8,
      "notes": "",
      "tags": [
        "W5Pfdy$1+n",
        "&29xsQf",
        "S&c_%5Js"
      ]
    },
    {
      "id": 304,
      "child": 1,
      "time": "2025-08-06T13:31:37.243844Z",
      "wet": true,
      "solid": true,
      "color": "yellow",
      "amount": 3.6,
      "notes": "",
      "tags": []
    },
    {
      "id": 303,
      "child": 1,
      "time": "2025-08-06T11:47:37.243844Z",
      "wet": true,
      "solid": false,
      "color": "",
      "amount": 1.9,
      "notes": "",
      "tags": []
    },
    {
      "id": 302,
      "child": 1,
      "time": "2025-08-06T09:40:37.243844Z",
      "wet": false,
      "solid": false,
      "color": "",
      "amount": 5.4,
      "notes": "",
      "tags": []
    },
    {
      "id": 301,
      "child": 1,
      "time": "2025-08-06T08:17:37.243844Z",
      "wet": true,
      "solid": false,
      "color": "",
      "amount": 1.3,
      "notes": "",
      "tags": []
    },
    {
      "id": 300,
      "child": 1,
      "time": "2025-08-06T02:32:56.243844Z",
      "wet": false,
      "solid": true,
      "color": "black",
      "amount": 4.7,
      "notes": "Certain main arrive just garden southern yard. Garden popular general show to.",
      "tags": []
    },
    {
      "id": 299,
      "child": 1,
      "time": "2025-08-06T01:18:08.243844Z",
      "wet": true,
      "solid": false,
      "color": "",
      "amount": 6.4,
      "notes": "",
      "tags": [
        "&2CtUv",
        "W5Pfdy$1+n",
        "&29xsQf"
      ]
    },
    {
      "id": 298,
      "child": 1,
      "time": "2025-08-05T23:56:08.243844Z",
      "wet": true,
      "solid": false,
      "color": "",
      "amount": 5.6,
      "notes": "",
      "tags": []
    },
    {
      "id": 297,
      "child": 1,
      "time": "2025-08-05T19:11:08.243844Z",
      "wet": true,
      "solid": false,
      "color": "",
      "amount": 3.1,
      "notes": "",
      "tags": []
    },
    {
      "id": 296,
      "child": 1,
      "time": "2025-08-05T17:30:08.243844Z",
      "wet": true,
      "solid": true,
      "color": "black",
      "amount": 4.8,
      "notes": "",
      "tags": [
        ")R*a0Dwc_",
        "&^6Ker0u^",
        "*64LSpi",
        "S&c_%5Js"
      ]
    },
    {
      "id": 295,
      "child": 1,
      "time": "2025-08-05T14:45:36.243844Z",
      "wet": false,
      "solid": false,
      "color": "",
      "amount": 1.8,
      "notes": "",
      "tags": []
    },
    {
      "id": 294,
      "child": 1,
      "time": "2025-08-05T14:13:36.243844Z",
      "wet": false,
      "solid": false,
      "color": "",
      "amount": 2.3,
      "notes": "Summer second figure. Go total could. Run job building performance true wide space speak. Describe section executive challenge practice form.",
      "tags": []
    },
    {
      "id": 293,
      "child": 1,
      "time": "2025-08-05T12:38:36.243844Z",
      "wet": true,
      "solid": true,
      "color": "green",
      "amount": 4.2,
      "notes": "Collection sport thus leave. Life summer against picture member sing. Occur make news respond parent determine positive. Company nor focus.",
      "tags": []
    },
    {
      "id": 292,
      "child": 1,
      "time": "2025-08-05T11:30:53.243844Z",
      "wet": false,
      "solid": false,
      "color": "",
      "amount": 1.6,
      "notes": "",
      "tags": []
    },
    {
      "id": 291,
      "child": 1,
      "time": "2025-08-05T10:00:53.243844Z",
      "wet": true,
      "solid": false,
      "color": "",
      "amount": 0.4,
      "notes": "",
      "tags": []
    },
    {
      "id": 290,
      "child": 1,
      "time": "2025-08-05T03:23:57.243844Z",
      "wet": true,
      "solid": false,
      "color": "",
      "amount": 4.3,
      "notes": "",
      "tags": []
    },
    {
      "id": 289,
      "child": 1,
      "time": "2025-08-05T01:52:57.243844Z",
      "wet": false,
      "solid": false,
      "color": "",
      "amount": 6.4,
      "notes": "Low yeah mind include sign candidate. According front same report interest. Carry space card high not high. Teach very offer break military tend.",
      "tags": []
    },
    {
      "id": 288,
      "child": 1,
      "time": "2025-08-04T21:39:44.243844Z",
      "wet": false,
      "solid": false,
      "color": "",
      "amount": 6.9,
      "notes": "",
      "tags": []
    },
    {
      "id": 287,
      "child": 1,
      "time": "2025-08-04T20:08:08.243844Z",
      "wet": true,
      "solid": true,
      "color": "green",
      "amount": 4.6,
      "notes": "",
      "tags": []
    },
    {
      "id": 286,
      "child": 1,
      "time": "2025-08-04T17:46:04.243844Z",
      "wet": true,
      "solid": true,
      "color": "yellow",
      "amount": 6.9,
      "notes": "",
      "tags": [
        "&^6Ker0u^",
        ")R*a0Dwc_"
      ]
    },
    {
      "id": 285,
      "child": 1,
      "time": "2025-08-04T17:11:29.243844Z",
      "wet": true,
      "solid": false,
      "color": "",
      "amount": 6.8,
      "notes": "",
      "tags": [
        "&29xsQf",
        "&2CtUv",
        "S&c_%5Js",
        "*64LSpi"
      ]
    },
    {
      "id": 284,
      "child": 1,
      "time": "2025-08-04T14:21:29.243844Z",
      "wet": true,
      "solid": true,
      "color": "brown",
      "amount": 2.2,
      "notes": "",
      "tags": [
        "S&c_%5Js",
        "W5Pfdy$1+n"
      ]
    },
    {
      "id": 283,
      "child": 1,
      "time": "2025-08-04T12:56:29.243844Z",
      "wet": true,
      "solid": false,
      "color": "",
      "amount": 3.1,
      "notes": "",
      "tags": []
    },
    {
      "id": 282,
      "child": 1,
      "time": "2025-08-04T10:10:08.243844Z",
      "wet": true,
      "solid": true,
      "color": "yellow",
      "amount": 5.6,
      "notes": "Hospital pull theory price senior growth friend. Recent less particular onto beat vote home. Forget for possible far environmental former beat animal.",
      "tags": [
        "@6Rm"
      ]
    },
    {
      "id": 281,
      "child": 1,
      "time": "2025-08-04T09:51:08.243844Z",
      "wet": false,
      "solid": false,
      "color": "",
      "amount": 3.5,
      "notes": "Seat onto development subject along mission.",
      "tags": []
    },
    {
      "id": 280,
      "child": 1,
      "time": "2025-08-04T06:40:27.243844Z",
      "wet": true,
      "solid": false,
      "color": "",
      "amount": 5.9,
      "notes": "Wear buy call. Same team use head. Cultural discussion town model. Old she measure both yourself. Size star particularly outside.",
      "tags": [
        "C))6_Ihc1"
      ]
    },
    {
      "id": 279,
      "child": 1,
      "time": "2025-08-04T06:36:27.243844Z",
      "wet": true,
      "solid": false,
      "color": "",
      "amount": 6.1,
      "notes": "Develop range receive. Investment involve despite. Story property situation.",
      "tags": [
        "C))6_Ihc1",
        "&29xsQf",
        ")R*a0Dwc_"
      ]
    },
    {
      "id": 278,
      "child": 1,
      "time": "2025-08-04T05:12:27.243844Z",
      "wet": true,
      "solid": true,
      "color": "brown",
      "amount": 0.6,
      "notes": "",
      "tags": []
    },
    {
      "id": 277,
      "child": 1,
      "time": "2025-08-03T23:56:36.243844Z",
      "wet": false,
      "solid": false,
      "color": "",
      "amount": 0.1,
      "notes": "",
      "tags": []
    },
    {
      "id": 276,
      "child": 1,
      "time": "2025-08-03T20:05:36.243844Z",
      "wet": true,
      "solid": false,
      "color": "",
      "amount": 0.6,
      "notes": "",
      "tags": []
    },
    {
      "id": 275,
      "child": 1,
      "time": "2025-08-03T18:40:36.243844Z",
      "wet": false,
      "solid": true,
      "color": "green",
      "amount": 6.5,
      "notes": "",
      "tags": []
    },
    {
      "id": 274,
      "child": 1,
      "time": "2025-08-03T16:24:15.243844Z",
      "wet": true,
      "solid": false,
      "color": "",
      "amount": 5.8,
      "notes": "",
      "tags": []
    },
    {
      "id": 273,
      "child": 1,
      "time": "2025-08-03T15:01:41.243844Z",
      "wet": false,
      "solid": false,
      "color": "",
      "amount": 3.1,
      "notes": "",
      "tags": []
    },
    {
      "id": 272,
      "child": 1,
      "time": "2025-08-03T12:56:41.243844Z",
      "wet": true,
      "solid": false,
      "color": "",
      "amount": 6.1,
      "notes": "",
      "tags": []
    },
    {
      "id": 271,
      "child": 1,
      "time": "2025-08-03T10:09:57.243844Z",
      "wet": true,
      "solid": false,
      "color": "",
      "amount": 0.1,
      "notes": "",
      "tags": []
    },
    {
      "id": 270,
      "child": 1,
      "time": "2025-08-03T09:14:57.243844Z",
      "wet": true,
      "solid": false,
      "color": "",
      "amount": 3.6,
      "notes": "",
      "tags": []
    },
    {
      "id": 269,
      "child": 1,
      "time": "2025-08-03T07:48:56.243844Z",
      "wet": false,
      "solid": false,
      "color": "",
      "amount": 4.2,
      "notes": "",
      "tags": []
    },
    {
      "id": 268,
      "child": 1,
      "time": "2025-08-03T06:55:56.243844Z",
      "wet": true,
      "solid": false,
      "color": "",
      "amount": 0.9,
      "notes": "",
      "tags": []
    },
    {
      "id": 267,
      "child": 1,
      "time": "2025-08-03T00:49:56.243844Z",
      "wet": false,
      "solid": false,
      "color": "",
      "amount": 0.2,
      "notes": "",
      "tags": []
    },
    {
      "id": 266,
      "child": 1,
      "time": "2025-08-03T00:21:56.243844Z",
      "wet": false,
      "solid": false,
      "color": "",
      "amount": 2.9,
      "notes": "",
      "tags": []
    },
    {
      "id": 265,
      "child": 1,
      "time": "2025-08-02T19:42:35.243844Z",
      "wet": true,
      "solid": true,
      "color": "yellow",
      "amount": 4.3,
      "notes": "",
      "tags": [
        ")R*a0Dwc_"
      ]
    },
    {
      "id": 264,
      "child": 1,
      "time": "2025-08-02T18:12:51.243844Z",
      "wet": false,
      "solid": false,
      "color": "",
      "amount": 2.1,
      "notes": "Let hospital also avoid bank arm. Minute garden else manage agency.",
      "tags": []
    },
    {
      "id": 263,
      "child": 1,
      "time": "2025-08-02T17:54:51.243844Z",
      "wet": true,
      "solid": false,
      "color": "",
      "amount": 5.3,
      "notes": "",
      "tags": []
    },
    {
      "id": 262,
      "child": 1,
      "time": "2025-08-02T15:23:22.243844Z",
      "wet": false,
      "solid": false,
      "color": "",
      "amount": 5.4,
      "notes": "",
      "tags": []
    },
    {
      "id": 261,
      "child": 1,
      "time": "2025-08-02T13:29:22.243844Z",
      "wet": false,
      "solid": false,
      "color": "",
      "amount": 3.7,
      "notes": "",
      "tags": []
    },
    {
      "id": 260,
      "child": 1,
      "time": "2025-08-02T10:03:21.243844Z",
      "wet": false,
      "solid": true,
      "color": "black",
      "amount": 2.7,
      "notes": "Can staff find.",
      "tags": []
    },
    {
      "id": 259,
      "child": 1,
      "time": "2025-08-02T07:44:21.243844Z",
      "wet": true,
      "solid": false,
      "color": "",
      "amount": 5.1,
      "notes": "Surface state easy particular measure understand huge. Individual apply people system television mention officer. Human cold treat less. Other catch such law new writer. Board least state phone agency.",
      "tags": []
    },
    {
      "id": 258,
      "child": 1,
      "time": "2025-08-02T06:51:21.243844Z",
      "wet": true,
      "solid": false,
      "color": "",
      "amount": 4.1,
      "notes": "",
      "tags": []
    },
    {
      "id": 257,
      "child": 1,
      "time": "2025-08-02T03:53:21.243844Z",
      "wet": false,
      "solid": true,
      "color": "green",
      "amount": 0.4,
      "notes": "",
      "tags": [
        ")R*a0Dwc_",
        "W5Pfdy$1+n",
        "S&c_%5Js"
      ]
    },
    {
      "id": 256,
      "child": 1,
      "time": "2025-08-02T02:18:21.243844Z",
      "wet": true,
      "solid": false,
      "color": "",
      "amount": 4.8,
      "notes": "",
      "tags": [
        "W5Pfdy$1+n",
        ")R*a0Dwc_",
        "C))6_Ihc1"
      ]
    },
    {
      "id": 255,
      "child": 1,
      "time": "2025-08-01T21:38:11.243844Z",
      "wet": false,
      "solid": false,
      "color": "",
      "amount": 1.3,
      "notes": "",
      "tags": []
    },
    {
      "id": 254,
      "child": 1,
      "time": "2025-08-01T20:57:11.243844Z",
      "wet": true,
      "solid": false,
      "color": "",
      "amount": 1.2,
      "notes": "",
      "tags": []
    },
    {
      "id": 253,
      "child": 1,
      "time": "2025-08-01T20:29:11.243844Z",
      "wet": false,
      "solid": false,
      "color": "",
      "amount": 3.9,
      "notes": "",
      "tags": [
        "&29xsQf",
        "S&c_%5Js",
        "&^6Ker0u^",
        ")R*a0Dwc_"
      ]
    },
    {
      "id": 252,
      "child": 1,
      "time": "2025-08-01T18:20:07.243844Z",
      "wet": false,
      "solid": true,
      "color": "yellow",
      "amount": 1.7,
      "notes": "",
      "tags": [
        "&2CtUv",
        ")xg@3lYj",
        ")R*a0Dwc_",
        "*64LSpi"
      ]
    },
    {
      "id": 251,
      "child": 1,
      "time": "2025-08-01T17:21:57.243844Z",
      "wet": true,
      "solid": true,
      "color": "green",
      "amount": 4.7,
      "notes": "Floor onto throw trouble rule race. In young whose new person develop. She than charge.",
      "tags": []
    },
    {
      "id": 250,
      "child": 1,
      "time": "2025-08-01T16:17:57.243844Z",
      "wet": false,
      "solid": true,
      "color": "brown",
      "amount": 3.1,
      "notes": "None sense nor task worry. Certain thought allow professor black. Government level if a describe deal.",
      "tags": []
    },
    {
      "id": 249,
      "child": 1,
      "time": "2025-08-01T14:04:09.243844Z",
      "wet": false,
      "solid": true,
      "color": "black",
      "amount": 3.3,
      "notes": "",
      "tags": []
    },
    {
      "id": 248,
      "child": 1,
      "time": "2025-08-01T13:06:09.243844Z",
      "wet": false,
      "solid": false,
      "color": "",
      "amount": 0.1,
      "notes": "",
      "tags": []
    },
    {
      "id": 247,
      "child": 1,
      "time": "2025-08-01T11:00:44.243844Z",
      "wet": false,
      "solid": false,
      "color": "",
      "amount": 3.7,
      "notes": "",
      "tags": [
        ")R*a0Dwc_",
        "@6Rm",
        "*64LSpi",
        "&29xsQf"
      ]
    },
    {
      "id": 246,
      "child": 1,
      "time": "2025-08-01T10:09:53.243844Z",
      "wet": true,
      "solid": true,
      "color": "brown",
      "amount": 0.3,
      "notes": "Turn assume arm dark than over avoid only. Cup choose ability summer space if actually increase. Effort reality other resource change. Model scientist particularly prove article training certainly. Why around item take which.",
      "tags": [
        "&29xsQf",
        "S&c_%5Js"
      ]
    },
    {
      "id": 245,
      "child": 1,
      "time": "2025-08-01T03:24:16.243844Z",
      "wet": false,
      "solid": true,
      "color": "black",
      "amount": 3.6,
      "notes": "",
      "tags": []
    },
    {
      "id": 244,
      "child": 1,
      "time": "2025-08-01T01:38:16.243844Z",
      "wet": false,
      "solid": false,
      "color": "",
      "amount": 4.9,
      "notes": "",
      "tags": []
    },
    {
      "id": 243,
      "child": 1,
      "time": "2025-07-31T19:08:53.243844Z",
      "wet": false,
      "solid": false,
      "color": "",
      "amount": 6.8,
      "notes": "Amount international home yard player despite me. Also power financial election. Audience blue phone generation since prove. Kitchen light too head talk medical type. Minute region charge bit decide.",
      "tags": []
    },
    {
      "id": 242,
      "child": 1,
      "time": "2025-07-31T18:01:59.243844Z",
      "wet": false,
      "solid": false,
      "color": "",
      "amount": 2.8,
      "notes": "",
      "tags": []
    },
    {
      "id": 241,
      "child": 1,
      "time": "2025-07-31T17:00:59.243844Z",
      "wet": false,
      "solid": true,
      "color": "black",
      "amount": 4.7,
      "notes": "",
      "tags": []
    },
    {
      "id": 240,
      "child": 1,
      "time": "2025-07-31T14:50:23.243844Z",
      "wet": true,
      "solid": false,
      "color": "",
      "amount": 4.9,
      "notes": "Ground risk her not knowledge weight one.",
      "tags": []
    },
    {
      "id": 239,
      "child": 1,
      "time": "2025-07-31T13:47:43.243844Z",
      "wet": false,
      "solid": false,
      "color": "",
      "amount": 1.5,
      "notes": "",
      "tags": []
    },
    {
      "id": 238,
      "child": 1,
      "time": "2025-07-31T11:58:43.243844Z",
      "wet": true,
      "solid": false,
      "color": "",
      "amount": 1.2,
      "notes": "",
      "tags": []
    },
    {
      "id": 237,
      "child": 1,
      "time": "2025-07-31T09:42:51.243844Z",
      "wet": true,
      "solid": false,
      "color": "",
      "amount": 4.3,
      "notes": "",
      "tags": []
    },
    {
      "id": 236,
      "child": 1,
      "time": "2025-07-31T09:15:51.243844Z",
      "wet": false,
      "solid": false,
      "color": "",
      "amount": 2.4,
      "notes": "",
      "tags": []
    },
    {
      "id": 235,
      "child": 1,
      "time": "2025-07-31T03:27:51.243844Z",
      "wet": false,
      "solid": false,
      "color": "",
      "amount": 6.6,
      "notes": "",
      "tags": []
    },
    {
      "id": 234,
      "child": 1,
      "time": "2025-07-30T20:19:28.243844Z",
      "wet": false,
      "solid": false,
      "color": "",
      "amount": 1.1,
      "notes": "",
      "tags": []
    },
    {
      "id": 233,
      "child": 1,
      "time": "2025-07-30T20:11:28.243844Z",
      "wet": true,
      "solid": false,
      "color": "",
      "amount": 0.8,
      "notes": "",
      "tags": []
    },
    {
      "id": 232,
      "child": 1,
      "time": "2025-07-30T17:05:09.243844Z",
      "wet": false,
      "solid": false,
      "color": "",
      "amount": 0.6,
      "notes": "",
      "tags": []
    },
    {
      "id": 231,
      "child": 1,
      "time": "2025-07-30T15:06:01.243844Z",
      "wet": false,
      "solid": true,
      "color": "yellow",
      "amount": 0.8,
      "notes": "Total ten service loss write population. Go some bill figure free staff before. Finish score respond owner establish. Positive hear part house. Toward night foreign.",
      "tags": []
    },
    {
      "id": 230,
      "child": 1,
      "time": "2025-07-30T11:07:04.243844Z",
      "wet": false,
      "solid": true,
      "color": "green",
      "amount": 5.4,
      "notes": "",
      "tags": []
    },
    {
      "id": 229,
      "child": 1,
      "time": "2025-07-30T09:49:04.243844Z",
      "wet": false,
      "solid": false,
      "color": "",
      "amount": 1.2,
      "notes": "",
      "tags": []
    },
    {
      "id": 228,
      "child": 1,
      "time": "2025-07-30T08:43:10.243844Z",
      "wet": true,
      "solid": true,
      "color": "yellow",
      "amount": 4.9,
      "notes": "",
      "tags": []
    },
    {
      "id": 227,
      "child": 1,
      "time": "2025-07-30T08:03:10.243844Z",
      "wet": true,
      "solid": false,
      "color": "",
      "amount": 3.3,
      "notes": "Without available within.",
      "tags": [
        ")R*a0Dwc_",
        ")xg@3lYj",
        "S&c_%5Js",
        "*64LSpi"
      ]
    },
    {
      "id": 226,
      "child": 1,
      "time": "2025-07-30T06:18:38.243844Z",
      "wet": false,
      "solid": false,
      "color": "",
      "amount": 0.2,
      "notes": "",
      "tags": []
    }
  ]
}